4HW/test.vcd
$date
    May 31, 2018  00:43:48
$end
$version
    TOOL:	ncsim	15.20-s039
$end
$timescale
    10 ps
$end

$scope module tb_cache $end
$var parameter 32 !    MEM_NUM  $end
$var parameter 32 "    MEM_WIDTH  $end
$var reg       1 #    clk  $end
$var reg       1 $    proc_reset  $end
$var reg       1 %    proc_read  $end
$var reg       1 &    proc_write  $end
$var reg      30 '    proc_addr [29:0] $end
$var reg      32 (    proc_wdata [31:0] $end
$var wire     32 )    proc_rdata [31:0] $end
$var wire      1 *    proc_stall  $end
$var wire      1 +    mem_ready  $end
$var wire      1 ,    mem_read  $end
$var wire      1 -    mem_write  $end
$var wire     28 .    mem_addr [27:0] $end
$var wire     128 /    mem_wdata [127:0] $end
$var wire     128 0    mem_rdata [127:0] $end
$var reg      128 1    temp_data [127:0] $end
$var integer  32 2    i  $end
$var integer  32 3    d  $end
$var integer  32 4    k  $end
$var integer  32 5    error  $end
$var integer  32 6    h  $end

$scope module u_mem $end
$var parameter 32 7    MEM_NUM  $end
$var parameter 32 8    MEM_WIDTH  $end
$var parameter 32 9    READ_LATENCY  $end
$var parameter 32 :    RESPONSE_TIME  $end
$var wire      1 ;    clk  $end
$var wire      1 ,    mem_read  $end
$var wire      1 -    mem_write  $end
$var wire     28 .    mem_addr [27:0] $end
$var wire     128 /    mem_wdata [127:0] $end
$var wire     128 0    mem_rdata [127:0] $end
$var reg       1 <    mem_ready  $end
$var reg      128 =    data_out [127:0] $end
$var reg      128 >    mask_out [127:0] $end
$var reg      28 ?    read_addr [27:0] $end
$var reg       3 @    counter [2:0] $end
$upscope $end


$scope module u_cache $end
$var wire      1 ;    clk  $end
$var wire      1 A    proc_reset  $end
$var wire      1 B    proc_read  $end
$var wire      1 C    proc_write  $end
$var wire     30 D    proc_addr [29:0] $end
$var wire     32 E    proc_wdata [31:0] $end
$var reg       1 F    proc_stall  $end
$var reg      32 G    proc_rdata [31:0] $end
$var wire     128 0    mem_rdata [127:0] $end
$var wire      1 +    mem_ready  $end
$var reg       1 H    mem_read  $end
$var reg       1 I    mem_write  $end
$var reg      28 J    mem_addr [27:0] $end
$var reg      128 K    mem_wdata [127:0] $end
$var reg       2 L    state [1:0] $end
$var integer  32 M    i  $end
$var reg       1 N    hit  $end
$var reg       1 O    hit1  $end
$var reg       1 P    hit0  $end
$var reg       1 Q    tag_equal1  $end
$var reg       1 R    tag_equal0  $end
$var reg       1 S    sel_valid1  $end
$var reg       1 T    sel_valid0  $end
$var reg      26 U    sel_tag1 [25:0] $end
$var reg      26 V    sel_tag0 [25:0] $end
$var reg       4 W    LFU [3:0] $end
$upscope $end

$upscope $end

$enddefinitions $end
$dumpvars
b101 :
b1111 9
b10000000 8
b100000000 7
b10000000 "
b100000000 !
0#
1$
0%
0&
b0 '
b0 (
b0 )
1*
0+
0,
0-
bx .
bx /
bx 0
b1111111111000000000000000000000011111111100000000000000000000000111111110100000000000000000000001111111100 1
b100000000 2
b1111111100 3
bx 4
b0 5
bx 6
0;
0<
bx =
bx >
bx ?
b10 @
1A
0B
0C
b0 D
b0 E
1F
b0 G
0H
0I
bx J
bx K
b0 L
b1000 M
0N
0O
0P
1Q
1R
0S
0T
b0 U
b0 V
b0 W
$end
#250
1#
1;
b0 M
b1 M
b10 M
b11 M
b100 M
b101 M
b110 M
b111 M
b1000 M
#500
0#
0;
b11 @
#750
1#
1;
#1000
0#
0;
b100 @
#1250
1#
1;
#1500
0#
0;
b101 @
#1750
1#
1;
#2000
0$
0#
0;
0A
b110 @
#2250
b0 4
1#
1;
#2280
1%
1B
#2500
0#
0;
b111 @
#2750
1#
1;
b10 L
1H
b0 J
b0 .
1,
#3000
0#
0;
b0 @
#3250
1#
1;
#3500
0#
0;
b1 @
#3750
1#
1;
#4000
0#
0;
b10 @
b0 ?
#4250
1#
1;
#4500
b0 >
b11000000000000000000000000000000100000000000000000000000000000000100000000000000000000000000000000 =
0#
b11000000000000000000000000000000100000000000000000000000000000000100000000000000000000000000000000 0
0;
b11 @
#4750
1#
1;
#5000
0#
0;
b100 @
#5250
1#
1;
#5500
1<
0#
0;
1+
b101 @
#5750
1#
1;
b0 L
0H
1T
1P
1N
0F
0*
0,
#6000
0#
0;
b110 @
0<
0+
#6220
b1 4
#6250
1#
1;
b1 W
#6280
b1 '
b1 D
b1 G
b1 )
#6500
0#
0;
b111 @
#6720
b10 4
#6750
1#
1;
#6780
b10 '
b10 D
b10 G
b10 )
#7000
0#
0;
b0 @
#7220
b11 4
#7250
1#
1;
#7280
b11 '
b11 D
b11 G
b11 )
#7500
0#
0;
b1 @
#7720
b100 4
#7750
1#
1;
#7780
b100 '
b100 D
0T
0P
0N
1F
1*
b0 G
b0 )
#8000
0#
0;
b10 @
#8250
1#
1;
b10 L
1H
b1 J
b1 .
1,
#8500
0#
0;
b11 @
#8750
1#
1;
#9000
0#
0;
b100 @
#9250
1#
1;
#9500
0#
0;
b101 @
#9750
1#
1;
#10000
0#
0;
b110 @
b1 ?
#10250
1#
1;
#10500
bx >
b111000000000000000000000000000001100000000000000000000000000000010100000000000000000000000000000100 =
0#
bx 0
0;
b111 @
#10750
1#
1;
#11000
0#
0;
b0 @
#11250
1#
1;
#11500
b0 >
1<
0#
b111000000000000000000000000000001100000000000000000000000000000010100000000000000000000000000000100 0
0;
1+
b1 @
#11750
1#
1;
b0 L
0H
1T
1P
1N
0F
0*
0,
b100 G
b100 )
#12000
0#
0;
b10 @
0<
0+
#12220
b101 4
#12250
1#
1;
b11 W
#12280
b101 '
b101 D
b101 G
b101 )
#12500
0#
0;
b11 @
#12720
b110 4
#12750
1#
1;
#12780
b110 '
b110 D
b110 G
b110 )
#13000
0#
0;
b100 @
#13220
b111 4
#13250
1#
1;
#13280
b111 '
b111 D
b111 G
b111 )
#13500
0#
0;
b101 @
#13720
b1000 4
#13750
1#
1;
#13780
b1000 '
b1000 D
0T
0P
0N
1F
1*
b0 G
b0 )
#14000
0#
0;
b110 @
#14250
1#
1;
b10 L
1H
b10 J
b10 .
1,
#14500
0#
0;
b111 @
#14750
1#
1;
#15000
0#
0;
b0 @
#15250
1#
1;
#15500
0#
0;
b1 @
#15750
1#
1;
#16000
0#
0;
b10 @
b10 ?
#16250
1#
1;
#16500
bx >
b1011000000000000000000000000000010100000000000000000000000000000100100000000000000000000000000001000 =
0#
bx 0
0;
b11 @
#16750
1#
1;
#17000
0#
0;
b100 @
#17250
1#
1;
#17500
b0 >
1<
0#
b1011000000000000000000000000000010100000000000000000000000000000100100000000000000000000000000001000 0
0;
1+
b101 @
#17750
1#
1;
b0 L
0H
1T
1P
1N
0F
0*
0,
b1000 G
b1000 )
#18000
0#
0;
b110 @
0<
0+
#18220
b1001 4
#18250
1#
1;
b111 W
#18280
b1001 '
b1001 D
b1001 G
b1001 )
#18500
0#
0;
b111 @
#18720
b1010 4
#18750
1#
1;
#18780
b1010 '
b1010 D
b1010 G
b1010 )
#19000
0#
0;
b0 @
#19220
b1011 4
#19250
1#
1;
#19280
b1011 '
b1011 D
b1011 G
b1011 )
#19500
0#
0;
b1 @
#19720
b1100 4
#19750
1#
1;
#19780
b1100 '
b1100 D
0T
0P
0N
1F
1*
b0 G
b0 )
#20000
0#
0;
b10 @
#20250
1#
1;
b10 L
1H
b11 J
b11 .
1,
#20500
0#
0;
b11 @
#20750
1#
1;
#21000
0#
0;
b100 @
#21250
1#
1;
#21500
0#
0;
b101 @
#21750
1#
1;
#22000
0#
0;
b110 @
b11 ?
#22250
1#
1;
#22500
bx >
b1111000000000000000000000000000011100000000000000000000000000000110100000000000000000000000000001100 =
0#
bx 0
0;
b111 @
#22750
1#
1;
#23000
0#
0;
b0 @
#23250
1#
1;
#23500
b0 >
1<
0#
b1111000000000000000000000000000011100000000000000000000000000000110100000000000000000000000000001100 0
0;
1+
b1 @
#23750
1#
1;
b0 L
0H
1T
1P
1N
0F
0*
0,
b1100 G
b1100 )
#24000
0#
0;
b10 @
0<
0+
#24220
b1101 4
#24250
1#
1;
b1111 W
#24280
b1101 '
b1101 D
b1101 G
b1101 )
#24500
0#
0;
b11 @
#24720
b1110 4
#24750
1#
1;
#24780
b1110 '
b1110 D
b1110 G
b1110 )
#25000
0#
0;
b100 @
#25220
b1111 4
#25250
1#
1;
#25280
b1111 '
b1111 D
b1111 G
b1111 )
#25500
0#
0;
b101 @
#25720
b10000 4
#25750
1#
1;
#25780
b10000 '
b10000 D
0R
0Q
0P
0N
1F
1*
b0 G
b0 )
#26000
0#
0;
b110 @
#26250
1#
1;
b10 L
1H
b100 J
b100 .
1,
#26500
0#
0;
b111 @
#26750
1#
1;
#27000
0#
0;
b0 @
#27250
1#
1;
#27500
0#
0;
b1 @
#27750
1#
1;
#28000
0#
0;
b10 @
b100 ?
#28250
1#
1;
#28500
bx >
b10011000000000000000000000000000100100000000000000000000000000001000100000000000000000000000000010000 =
0#
bx 0
0;
b11 @
#28750
1#
1;
#29000
0#
0;
b100 @
#29250
1#
1;
#29500
b0 >
1<
0#
b10011000000000000000000000000000100100000000000000000000000000001000100000000000000000000000000010000 0
0;
1+
b101 @
#29750
1#
1;
b0 L
0H
1S
b1 U
1Q
1O
1N
0F
0*
0,
b10000 G
b10000 )
#30000
0#
0;
b110 @
0<
0+
#30220
b10001 4
#30250
1#
1;
b1110 W
#30280
b10001 '
b10001 D
b10001 G
b10001 )
#30500
0#
0;
b111 @
#30720
b10010 4
#30750
1#
1;
#30780
b10010 '
b10010 D
b10010 G
b10010 )
#31000
0#
0;
b0 @
#31220
b10011 4
#31250
1#
1;
#31280
b10011 '
b10011 D
b10011 G
b10011 )
#31500
0#
0;
b1 @
#31720
b10100 4
#31750
1#
1;
#31780
b10100 '
b10100 D
0S
b0 U
0Q
0O
0N
1F
1*
b0 G
b0 )
#32000
0#
0;
b10 @
#32250
1#
1;
b10 L
1H
b101 J
b101 .
1,
#32500
0#
0;
b11 @
#32750
1#
1;
#33000
0#
0;
b100 @
#33250
1#
1;
#33500
0#
0;
b101 @
#33750
1#
1;
#34000
0#
0;
b110 @
b101 ?
#34250
1#
1;
#34500
bx >
b10111000000000000000000000000000101100000000000000000000000000001010100000000000000000000000000010100 =
0#
bx 0
0;
b111 @
#34750
1#
1;
#35000
0#
0;
b0 @
#35250
1#
1;
#35500
b0 >
1<
0#
b10111000000000000000000000000000101100000000000000000000000000001010100000000000000000000000000010100 0
0;
1+
b1 @
#35750
1#
1;
b0 L
0H
1S
b1 U
1Q
1O
1N
0F
0*
0,
b10100 G
b10100 )
#36000
0#
0;
b10 @
0<
0+
#36220
b10101 4
#36250
1#
1;
b1100 W
#36280
b10101 '
b10101 D
b10101 G
b10101 )
#36500
0#
0;
b11 @
#36720
b10110 4
#36750
1#
1;
#36780
b10110 '
b10110 D
b10110 G
b10110 )
#37000
0#
0;
b100 @
#37220
b10111 4
#37250
1#
1;
#37280
b10111 '
b10111 D
b10111 G
b10111 )
#37500
0#
0;
b101 @
#37720
b11000 4
#37750
1#
1;
#37780
b11000 '
b11000 D
0S
b0 U
0Q
0O
0N
1F
1*
b0 G
b0 )
#38000
0#
0;
b110 @
#38250
1#
1;
b10 L
1H
b110 J
b110 .
1,
#38500
0#
0;
b111 @
#38750
1#
1;
#39000
0#
0;
b0 @
#39250
1#
1;
#39500
0#
0;
b1 @
#39750
1#
1;
#40000
0#
0;
b10 @
b110 ?
#40250
1#
1;
#40500
bx >
b11011000000000000000000000000000110100000000000000000000000000001100100000000000000000000000000011000 =
0#
bx 0
0;
b11 @
#40750
1#
1;
#41000
0#
0;
b100 @
#41250
1#
1;
#41500
b0 >
1<
0#
b11011000000000000000000000000000110100000000000000000000000000001100100000000000000000000000000011000 0
0;
1+
b101 @
#41750
1#
1;
b0 L
0H
1S
b1 U
1Q
1O
1N
0F
0*
0,
b11000 G
b11000 )
#42000
0#
0;
b110 @
0<
0+
#42220
b11001 4
#42250
1#
1;
b1000 W
#42280
b11001 '
b11001 D
b11001 G
b11001 )
#42500
0#
0;
b111 @
#42720
b11010 4
#42750
1#
1;
#42780
b11010 '
b11010 D
b11010 G
b11010 )
#43000
0#
0;
b0 @
#43220
b11011 4
#43250
1#
1;
#43280
b11011 '
b11011 D
b11011 G
b11011 )
#43500
0#
0;
b1 @
#43720
b11100 4
#43750
1#
1;
#43780
b11100 '
b11100 D
0S
b0 U
0Q
0O
0N
1F
1*
b0 G
b0 )
#44000
0#
0;
b10 @
#44250
1#
1;
b10 L
1H
b111 J
b111 .
1,
#44500
0#
0;
b11 @
#44750
1#
1;
#45000
0#
0;
b100 @
#45250
1#
1;
#45500
0#
0;
b101 @
#45750
1#
1;
#46000
0#
0;
b110 @
b111 ?
#46250
1#
1;
#46500
bx >
b11111000000000000000000000000000111100000000000000000000000000001110100000000000000000000000000011100 =
0#
bx 0
0;
b111 @
#46750
1#
1;
#47000
0#
0;
b0 @
#47250
1#
1;
#47500
b0 >
1<
0#
b11111000000000000000000000000000111100000000000000000000000000001110100000000000000000000000000011100 0
0;
1+
b1 @
#47750
1#
1;
b0 L
0H
1S
b1 U
1Q
1O
1N
0F
0*
0,
b11100 G
b11100 )
#48000
0#
0;
b10 @
0<
0+
#48220
b11101 4
#48250
1#
1;
b0 W
#48280
b11101 '
b11101 D
b11101 G
b11101 )
#48500
0#
0;
b11 @
#48720
b11110 4
#48750
1#
1;
#48780
b11110 '
b11110 D
b11110 G
b11110 )
#49000
0#
0;
b100 @
#49220
b11111 4
#49250
1#
1;
#49280
b11111 '
b11111 D
b11111 G
b11111 )
#49500
0#
0;
b101 @
#49720
b100000 4
#49750
1#
1;
#49780
b100000 '
b100000 D
0Q
0O
0N
1F
1*
b10000 G
b10000 )
#50000
0#
0;
b110 @
#50250
1#
1;
b10 L
1H
b1000 J
b1000 .
1,
#50500
0#
0;
b111 @
#50750
1#
1;
#51000
0#
0;
b0 @
#51250
1#
1;
#51500
0#
0;
b1 @
#51750
1#
1;
#52000
0#
0;
b10 @
b1000 ?
#52250
1#
1;
#52500
bx >
b100011000000000000000000000000001000100000000000000000000000000010000100000000000000000000000000100000 =
0#
bx 0
0;
b11 @
#52750
1#
1;
#53000
0#
0;
b100 @
#53250
1#
1;
#53500
b0 >
1<
0#
b100011000000000000000000000000001000100000000000000000000000000010000100000000000000000000000000100000 0
0;
1+
b101 @
#53750
1#
1;
b0 L
0H
b10 V
1R
1P
1N
0F
0*
0,
b100000 G
b100000 )
#54000
0#
0;
b110 @
0<
0+
#54220
b100001 4
#54250
1#
1;
b1 W
#54280
b100001 '
b100001 D
b100001 G
b100001 )
#54500
0#
0;
b111 @
#54720
b100010 4
#54750
1#
1;
#54780
b100010 '
b100010 D
b100010 G
b100010 )
#55000
0#
0;
b0 @
#55220
b100011 4
#55250
1#
1;
#55280
b100011 '
b100011 D
b100011 G
b100011 )
#55500
0#
0;
b1 @
#55720
b100100 4
#55750
1#
1;
#55780
b100100 '
b100100 D
b0 V
0R
0P
0N
1F
1*
b10100 G
b10100 )
#56000
0#
0;
b10 @
#56250
1#
1;
b10 L
1H
b1001 J
b1001 .
1,
#56500
0#
0;
b11 @
#56750
1#
1;
#57000
0#
0;
b100 @
#57250
1#
1;
#57500
0#
0;
b101 @
#57750
1#
1;
#58000
0#
0;
b110 @
b1001 ?
#58250
1#
1;
#58500
bx >
b100111000000000000000000000000001001100000000000000000000000000010010100000000000000000000000000100100 =
0#
bx 0
0;
b111 @
#58750
1#
1;
#59000
0#
0;
b0 @
#59250
1#
1;
#59500
b0 >
1<
0#
b100111000000000000000000000000001001100000000000000000000000000010010100000000000000000000000000100100 0
0;
1+
b1 @
#59750
1#
1;
b0 L
0H
b10 V
1R
1P
1N
0F
0*
0,
b100100 G
b100100 )
#60000
0#
0;
b10 @
0<
0+
#60220
b100101 4
#60250
1#
1;
b11 W
#60280
b100101 '
b100101 D
b100101 G
b100101 )
#60500
0#
0;
b11 @
#60720
b100110 4
#60750
1#
1;
#60780
b100110 '
b100110 D
b100110 G
b100110 )
#61000
0#
0;
b100 @
#61220
b100111 4
#61250
1#
1;
#61280
b100111 '
b100111 D
b100111 G
b100111 )
#61500
0#
0;
b101 @
#61720
b101000 4
#61750
1#
1;
#61780
b101000 '
b101000 D
b0 V
0R
0P
0N
1F
1*
b11000 G
b11000 )
#62000
0#
0;
b110 @
#62250
1#
1;
b10 L
1H
b1010 J
b1010 .
1,
#62500
0#
0;
b111 @
#62750
1#
1;
#63000
0#
0;
b0 @
#63250
1#
1;
#63500
0#
0;
b1 @
#63750
1#
1;
#64000
0#
0;
b10 @
b1010 ?
#64250
1#
1;
#64500
bx >
b101011000000000000000000000000001010100000000000000000000000000010100100000000000000000000000000101000 =
0#
bx 0
0;
b11 @
#64750
1#
1;
#65000
0#
0;
b100 @
#65250
1#
1;
#65500
b0 >
1<
0#
b101011000000000000000000000000001010100000000000000000000000000010100100000000000000000000000000101000 0
0;
1+
b101 @
#65750
1#
1;
b0 L
0H
b10 V
1R
1P
1N
0F
0*
0,
b101000 G
b101000 )
#66000
0#
0;
b110 @
0<
0+
#66220
b101001 4
#66250
1#
1;
b111 W
#66280
b101001 '
b101001 D
b101001 G
b101001 )
#66500
0#
0;
b111 @
#66720
b101010 4
#66750
1#
1;
#66780
b101010 '
b101010 D
b101010 G
b101010 )
#67000
0#
0;
b0 @
#67220
b101011 4
#67250
1#
1;
#67280
b101011 '
b101011 D
b101011 G
b101011 )
#67500
0#
0;
b1 @
#67720
b101100 4
#67750
1#
1;
#67780
b101100 '
b101100 D
b0 V
0R
0P
0N
1F
1*
b11100 G
b11100 )
#68000
0#
0;
b10 @
#68250
1#
1;
b10 L
1H
b1011 J
b1011 .
1,
#68500
0#
0;
b11 @
#68750
1#
1;
#69000
0#
0;
b100 @
#69250
1#
1;
#69500
0#
0;
b101 @
#69750
1#
1;
#70000
0#
0;
b110 @
b1011 ?
#70250
1#
1;
#70500
bx >
b101111000000000000000000000000001011100000000000000000000000000010110100000000000000000000000000101100 =
0#
bx 0
0;
b111 @
#70750
1#
1;
#71000
0#
0;
b0 @
#71250
1#
1;
#71500
b0 >
1<
0#
b101111000000000000000000000000001011100000000000000000000000000010110100000000000000000000000000101100 0
0;
1+
b1 @
#71750
1#
1;
b0 L
0H
b10 V
1R
1P
1N
0F
0*
0,
b101100 G
b101100 )
#72000
0#
0;
b10 @
0<
0+
#72220
b101101 4
#72250
1#
1;
b1111 W
#72280
b101101 '
b101101 D
b101101 G
b101101 )
#72500
0#
0;
b11 @
#72720
b101110 4
#72750
1#
1;
#72780
b101110 '
b101110 D
b101110 G
b101110 )
#73000
0#
0;
b100 @
#73220
b101111 4
#73250
1#
1;
#73280
b101111 '
b101111 D
b101111 G
b101111 )
#73500
0#
0;
b101 @
#73720
b110000 4
#73750
1#
1;
#73780
b110000 '
b110000 D
0R
0P
0N
1F
1*
b10000 G
b10000 )
#74000
0#
0;
b110 @
#74250
1#
1;
b10 L
1H
b1100 J
b1100 .
1,
#74500
0#
0;
b111 @
#74750
1#
1;
#75000
0#
0;
b0 @
#75250
1#
1;
#75500
0#
0;
b1 @
#75750
1#
1;
#76000
0#
0;
b10 @
b1100 ?
#76250
1#
1;
#76500
bx >
b110011000000000000000000000000001100100000000000000000000000000011000100000000000000000000000000110000 =
0#
bx 0
0;
b11 @
#76750
1#
1;
#77000
0#
0;
b100 @
#77250
1#
1;
#77500
b0 >
1<
0#
b110011000000000000000000000000001100100000000000000000000000000011000100000000000000000000000000110000 0
0;
1+
b101 @
#77750
1#
1;
b0 L
0H
b11 U
1Q
1O
1N
0F
0*
0,
b110000 G
b110000 )
#78000
0#
0;
b110 @
0<
0+
#78220
b110001 4
#78250
1#
1;
b1110 W
#78280
b110001 '
b110001 D
b110001 G
b110001 )
#78500
0#
0;
b111 @
#78720
b110010 4
#78750
1#
1;
#78780
b110010 '
b110010 D
b110010 G
b110010 )
#79000
0#
0;
b0 @
#79220
b110011 4
#79250
1#
1;
#79280
b110011 '
b110011 D
b110011 G
b110011 )
#79500
0#
0;
b1 @
#79720
b110100 4
#79750
1#
1;
#79780
b110100 '
b110100 D
b1 U
0Q
0O
0N
1F
1*
b10100 G
b10100 )
#80000
0#
0;
b10 @
#80250
1#
1;
b10 L
1H
b1101 J
b1101 .
1,
#80500
0#
0;
b11 @
#80750
1#
1;
#81000
0#
0;
b100 @
#81250
1#
1;
#81500
0#
0;
b101 @
#81750
1#
1;
#82000
0#
0;
b110 @
b1101 ?
#82250
1#
1;
#82500
bx >
b110111000000000000000000000000001101100000000000000000000000000011010100000000000000000000000000110100 =
0#
bx 0
0;
b111 @
#82750
1#
1;
#83000
0#
0;
b0 @
#83250
1#
1;
#83500
b0 >
1<
0#
b110111000000000000000000000000001101100000000000000000000000000011010100000000000000000000000000110100 0
0;
1+
b1 @
#83750
1#
1;
b0 L
0H
b11 U
1Q
1O
1N
0F
0*
0,
b110100 G
b110100 )
#84000
0#
0;
b10 @
0<
0+
#84220
b110101 4
#84250
1#
1;
b1100 W
#84280
b110101 '
b110101 D
b110101 G
b110101 )
#84500
0#
0;
b11 @
#84720
b110110 4
#84750
1#
1;
#84780
b110110 '
b110110 D
b110110 G
b110110 )
#85000
0#
0;
b100 @
#85220
b110111 4
#85250
1#
1;
#85280
b110111 '
b110111 D
b110111 G
b110111 )
#85500
0#
0;
b101 @
#85720
b111000 4
#85750
1#
1;
#85780
b111000 '
b111000 D
b1 U
0Q
0O
0N
1F
1*
b11000 G
b11000 )
#86000
0#
0;
b110 @
#86250
1#
1;
b10 L
1H
b1110 J
b1110 .
1,
#86500
0#
0;
b111 @
#86750
1#
1;
#87000
0#
0;
b0 @
#87250
1#
1;
#87500
0#
0;
b1 @
#87750
1#
1;
#88000
0#
0;
b10 @
b1110 ?
#88250
1#
1;
#88500
bx >
b111011000000000000000000000000001110100000000000000000000000000011100100000000000000000000000000111000 =
0#
bx 0
0;
b11 @
#88750
1#
1;
#89000
0#
0;
b100 @
#89250
1#
1;
#89500
b0 >
1<
0#
b111011000000000000000000000000001110100000000000000000000000000011100100000000000000000000000000111000 0
0;
1+
b101 @
#89750
1#
1;
b0 L
0H
b11 U
1Q
1O
1N
0F
0*
0,
b111000 G
b111000 )
#90000
0#
0;
b110 @
0<
0+
#90220
b111001 4
#90250
1#
1;
b1000 W
#90280
b111001 '
b111001 D
b111001 G
b111001 )
#90500
0#
0;
b111 @
#90720
b111010 4
#90750
1#
1;
#90780
b111010 '
b111010 D
b111010 G
b111010 )
#91000
0#
0;
b0 @
#91220
b111011 4
#91250
1#
1;
#91280
b111011 '
b111011 D
b111011 G
b111011 )
#91500
0#
0;
b1 @
#91720
b111100 4
#91750
1#
1;
#91780
b111100 '
b111100 D
b1 U
0Q
0O
0N
1F
1*
b11100 G
b11100 )
#92000
0#
0;
b10 @
#92250
1#
1;
b10 L
1H
b1111 J
b1111 .
1,
#92500
0#
0;
b11 @
#92750
1#
1;
#93000
0#
0;
b100 @
#93250
1#
1;
#93500
0#
0;
b101 @
#93750
1#
1;
#94000
0#
0;
b110 @
b1111 ?
#94250
1#
1;
#94500
bx >
b111111000000000000000000000000001111100000000000000000000000000011110100000000000000000000000000111100 =
0#
bx 0
0;
b111 @
#94750
1#
1;
#95000
0#
0;
b0 @
#95250
1#
1;
#95500
b0 >
1<
0#
b111111000000000000000000000000001111100000000000000000000000000011110100000000000000000000000000111100 0
0;
1+
b1 @
#95750
1#
1;
b0 L
0H
b11 U
1Q
1O
1N
0F
0*
0,
b111100 G
b111100 )
#96000
0#
0;
b10 @
0<
0+
#96220
b111101 4
#96250
1#
1;
b0 W
#96280
b111101 '
b111101 D
b111101 G
b111101 )
#96500
0#
0;
b11 @
#96720
b111110 4
#96750
1#
1;
#96780
b111110 '
b111110 D
b111110 G
b111110 )
#97000
0#
0;
b100 @
#97220
b111111 4
#97250
1#
1;
#97280
b111111 '
b111111 D
b111111 G
b111111 )
#97500
0#
0;
b101 @
#97720
b1000000 4
#97750
1#
1;
#97780
b1000000 '
b1000000 D
0Q
0O
0N
1F
1*
b110000 G
b110000 )
#98000
0#
0;
b110 @
#98250
1#
1;
b10 L
1H
b10000 J
b10000 .
1,
#98500
0#
0;
b111 @
#98750
1#
1;
#99000
0#
0;
b0 @
#99250
1#
1;
#99500
0#
0;
b1 @
#99750
1#
1;
#100000
0#
0;
b10 @
b10000 ?
#100250
1#
1;
#100500
bx >
b1000011000000000000000000000000010000100000000000000000000000000100000100000000000000000000000001000000 =
0#
bx 0
0;
b11 @
#100750
1#
1;
#101000
0#
0;
b100 @
#101250
1#
1;
#101500
b0 >
1<
0#
b1000011000000000000000000000000010000100000000000000000000000000100000100000000000000000000000001000000 0
0;
1+
b101 @
#101750
1#
1;
b0 L
0H
b100 V
1R
1P
1N
0F
0*
0,
b1000000 G
b1000000 )
#102000
0#
0;
b110 @
0<
0+
#102220
b1000001 4
#102250
1#
1;
b1 W
#102280
b1000001 '
b1000001 D
b1000001 G
b1000001 )
#102500
0#
0;
b111 @
#102720
b1000010 4
#102750
1#
1;
#102780
b1000010 '
b1000010 D
b1000010 G
b1000010 )
#103000
0#
0;
b0 @
#103220
b1000011 4
#103250
1#
1;
#103280
b1000011 '
b1000011 D
b1000011 G
b1000011 )
#103500
0#
0;
b1 @
#103720
b1000100 4
#103750
1#
1;
#103780
b1000100 '
b1000100 D
b10 V
0R
0P
0N
1F
1*
b110100 G
b110100 )
#104000
0#
0;
b10 @
#104250
1#
1;
b10 L
1H
b10001 J
b10001 .
1,
#104500
0#
0;
b11 @
#104750
1#
1;
#105000
0#
0;
b100 @
#105250
1#
1;
#105500
0#
0;
b101 @
#105750
1#
1;
#106000
0#
0;
b110 @
b10001 ?
#106250
1#
1;
#106500
bx >
b1000111000000000000000000000000010001100000000000000000000000000100010100000000000000000000000001000100 =
0#
bx 0
0;
b111 @
#106750
1#
1;
#107000
0#
0;
b0 @
#107250
1#
1;
#107500
b0 >
1<
0#
b1000111000000000000000000000000010001100000000000000000000000000100010100000000000000000000000001000100 0
0;
1+
b1 @
#107750
1#
1;
b0 L
0H
b100 V
1R
1P
1N
0F
0*
0,
b1000100 G
b1000100 )
#108000
0#
0;
b10 @
0<
0+
#108220
b1000101 4
#108250
1#
1;
b11 W
#108280
b1000101 '
b1000101 D
b1000101 G
b1000101 )
#108500
0#
0;
b11 @
#108720
b1000110 4
#108750
1#
1;
#108780
b1000110 '
b1000110 D
b1000110 G
b1000110 )
#109000
0#
0;
b100 @
#109220
b1000111 4
#109250
1#
1;
#109280
b1000111 '
b1000111 D
b1000111 G
b1000111 )
#109500
0#
0;
b101 @
#109720
b1001000 4
#109750
1#
1;
#109780
b1001000 '
b1001000 D
b10 V
0R
0P
0N
1F
1*
b111000 G
b111000 )
#110000
0#
0;
b110 @
#110250
1#
1;
b10 L
1H
b10010 J
b10010 .
1,
#110500
0#
0;
b111 @
#110750
1#
1;
#111000
0#
0;
b0 @
#111250
1#
1;
#111500
0#
0;
b1 @
#111750
1#
1;
#112000
0#
0;
b10 @
b10010 ?
#112250
1#
1;
#112500
bx >
b1001011000000000000000000000000010010100000000000000000000000000100100100000000000000000000000001001000 =
0#
bx 0
0;
b11 @
#112750
1#
1;
#113000
0#
0;
b100 @
#113250
1#
1;
#113500
b0 >
1<
0#
b1001011000000000000000000000000010010100000000000000000000000000100100100000000000000000000000001001000 0
0;
1+
b101 @
#113750
1#
1;
b0 L
0H
b100 V
1R
1P
1N
0F
0*
0,
b1001000 G
b1001000 )
#114000
0#
0;
b110 @
0<
0+
#114220
b1001001 4
#114250
1#
1;
b111 W
#114280
b1001001 '
b1001001 D
b1001001 G
b1001001 )
#114500
0#
0;
b111 @
#114720
b1001010 4
#114750
1#
1;
#114780
b1001010 '
b1001010 D
b1001010 G
b1001010 )
#115000
0#
0;
b0 @
#115220
b1001011 4
#115250
1#
1;
#115280
b1001011 '
b1001011 D
b1001011 G
b1001011 )
#115500
0#
0;
b1 @
#115720
b1001100 4
#115750
1#
1;
#115780
b1001100 '
b1001100 D
b10 V
0R
0P
0N
1F
1*
b111100 G
b111100 )
#116000
0#
0;
b10 @
#116250
1#
1;
b10 L
1H
b10011 J
b10011 .
1,
#116500
0#
0;
b11 @
#116750
1#
1;
#117000
0#
0;
b100 @
#117250
1#
1;
#117500
0#
0;
b101 @
#117750
1#
1;
#118000
0#
0;
b110 @
b10011 ?
#118250
1#
1;
#118500
bx >
b1001111000000000000000000000000010011100000000000000000000000000100110100000000000000000000000001001100 =
0#
bx 0
0;
b111 @
#118750
1#
1;
#119000
0#
0;
b0 @
#119250
1#
1;
#119500
b0 >
1<
0#
b1001111000000000000000000000000010011100000000000000000000000000100110100000000000000000000000001001100 0
0;
1+
b1 @
#119750
1#
1;
b0 L
0H
b100 V
1R
1P
1N
0F
0*
0,
b1001100 G
b1001100 )
#120000
0#
0;
b10 @
0<
0+
#120220
b1001101 4
#120250
1#
1;
b1111 W
#120280
b1001101 '
b1001101 D
b1001101 G
b1001101 )
#120500
0#
0;
b11 @
#120720
b1001110 4
#120750
1#
1;
#120780
b1001110 '
b1001110 D
b1001110 G
b1001110 )
#121000
0#
0;
b100 @
#121220
b1001111 4
#121250
1#
1;
#121280
b1001111 '
b1001111 D
b1001111 G
b1001111 )
#121500
0#
0;
b101 @
#121720
b1010000 4
#121750
1#
1;
#121780
b1010000 '
b1010000 D
0R
0P
0N
1F
1*
b110000 G
b110000 )
#122000
0#
0;
b110 @
#122250
1#
1;
b10 L
1H
b10100 J
b10100 .
1,
#122500
0#
0;
b111 @
#122750
1#
1;
#123000
0#
0;
b0 @
#123250
1#
1;
#123500
0#
0;
b1 @
#123750
1#
1;
#124000
0#
0;
b10 @
b10100 ?
#124250
1#
1;
