3HW/verilog/SingleCycleRTL.vcd
$date
    May  8, 2018  00:04:21
$end
$version
    TOOL:	ncsim	15.20-s039
$end
$timescale
    10 ps
$end

$scope module SingleCycle_tb $end
$var reg       1 !    clk  $end
$var reg       1 "    rst_n  $end
$var wire     32 #    IR_addr [31:0] $end
$var wire     32 $    IR [31:0] $end
$var wire     32 %    RF_writedata [31:0] $end
$var wire      1 &    ReadDataMem [31] $end
$var wire      1 '    ReadDataMem [30] $end
$var wire      1 (    ReadDataMem [29] $end
$var wire      1 )    ReadDataMem [28] $end
$var wire      1 *    ReadDataMem [27] $end
$var wire      1 +    ReadDataMem [26] $end
$var wire      1 ,    ReadDataMem [25] $end
$var wire      1 -    ReadDataMem [24] $end
$var wire      1 .    ReadDataMem [23] $end
$var wire      1 /    ReadDataMem [22] $end
$var wire      1 0    ReadDataMem [21] $end
$var wire      1 1    ReadDataMem [20] $end
$var wire      1 2    ReadDataMem [19] $end
$var wire      1 3    ReadDataMem [18] $end
$var wire      1 4    ReadDataMem [17] $end
$var wire      1 5    ReadDataMem [16] $end
$var wire      1 6    ReadDataMem [15] $end
$var wire      1 7    ReadDataMem [14] $end
$var wire      1 8    ReadDataMem [13] $end
$var wire      1 9    ReadDataMem [12] $end
$var wire      1 :    ReadDataMem [11] $end
$var wire      1 ;    ReadDataMem [10] $end
$var wire      1 <    ReadDataMem [9] $end
$var wire      1 =    ReadDataMem [8] $end
$var wire      1 >    ReadDataMem [7] $end
$var wire      1 ?    ReadDataMem [6] $end
$var wire      1 @    ReadDataMem [5] $end
$var wire      1 A    ReadDataMem [4] $end
$var wire      1 B    ReadDataMem [3] $end
$var wire      1 C    ReadDataMem [2] $end
$var wire      1 D    ReadDataMem [1] $end
$var wire      1 E    ReadDataMem [0] $end
$var wire      1 F    CEN  $end
$var wire      1 G    WEN  $end
$var wire      1 H    A [6] $end
$var wire      1 I    A [5] $end
$var wire      1 J    A [4] $end
$var wire      1 K    A [3] $end
$var wire      1 L    A [2] $end
$var wire      1 M    A [1] $end
$var wire      1 N    A [0] $end
$var wire      1 O    ReadData2 [31] $end
$var wire      1 P    ReadData2 [30] $end
$var wire      1 Q    ReadData2 [29] $end
$var wire      1 R    ReadData2 [28] $end
$var wire      1 S    ReadData2 [27] $end
$var wire      1 T    ReadData2 [26] $end
$var wire      1 U    ReadData2 [25] $end
$var wire      1 V    ReadData2 [24] $end
$var wire      1 W    ReadData2 [23] $end
$var wire      1 X    ReadData2 [22] $end
$var wire      1 Y    ReadData2 [21] $end
$var wire      1 Z    ReadData2 [20] $end
$var wire      1 [    ReadData2 [19] $end
$var wire      1 \    ReadData2 [18] $end
$var wire      1 ]    ReadData2 [17] $end
$var wire      1 ^    ReadData2 [16] $end
$var wire      1 _    ReadData2 [15] $end
$var wire      1 `    ReadData2 [14] $end
$var wire      1 a    ReadData2 [13] $end
$var wire      1 b    ReadData2 [12] $end
$var wire      1 c    ReadData2 [11] $end
$var wire      1 d    ReadData2 [10] $end
$var wire      1 e    ReadData2 [9] $end
$var wire      1 f    ReadData2 [8] $end
$var wire      1 g    ReadData2 [7] $end
$var wire      1 h    ReadData2 [6] $end
$var wire      1 i    ReadData2 [5] $end
$var wire      1 j    ReadData2 [4] $end
$var wire      1 k    ReadData2 [3] $end
$var wire      1 l    ReadData2 [2] $end
$var wire      1 m    ReadData2 [1] $end
$var wire      1 n    ReadData2 [0] $end
$var wire      1 o    OEN  $end
$var integer  32 p    error_cnt  $end
$var integer  32 q    i  $end

$scope module i_rom $end
$var wire      7 r    addr [6:0] $end
$var reg      32 s    data [31:0] $end
$var integer  32 t    i  $end
$upscope $end


$scope module i_MIPS $end
$var wire      1 u    clk  $end
$var wire      1 v    rst_n  $end
$var wire     32 $    IR [31:0] $end
$var reg      32 w    IR_addr [31:0] $end
$var reg      32 x    RF_writedata [31:0] $end
$var wire      1 &    ReadDataMem [31] $end
$var wire      1 '    ReadDataMem [30] $end
$var wire      1 (    ReadDataMem [29] $end
$var wire      1 )    ReadDataMem [28] $end
$var wire      1 *    ReadDataMem [27] $end
$var wire      1 +    ReadDataMem [26] $end
$var wire      1 ,    ReadDataMem [25] $end
$var wire      1 -    ReadDataMem [24] $end
$var wire      1 .    ReadDataMem [23] $end
$var wire      1 /    ReadDataMem [22] $end
$var wire      1 0    ReadDataMem [21] $end
$var wire      1 1    ReadDataMem [20] $end
$var wire      1 2    ReadDataMem [19] $end
$var wire      1 3    ReadDataMem [18] $end
$var wire      1 4    ReadDataMem [17] $end
$var wire      1 5    ReadDataMem [16] $end
$var wire      1 6    ReadDataMem [15] $end
$var wire      1 7    ReadDataMem [14] $end
$var wire      1 8    ReadDataMem [13] $end
$var wire      1 9    ReadDataMem [12] $end
$var wire      1 :    ReadDataMem [11] $end
$var wire      1 ;    ReadDataMem [10] $end
$var wire      1 <    ReadDataMem [9] $end
$var wire      1 =    ReadDataMem [8] $end
$var wire      1 >    ReadDataMem [7] $end
$var wire      1 ?    ReadDataMem [6] $end
$var wire      1 @    ReadDataMem [5] $end
$var wire      1 A    ReadDataMem [4] $end
$var wire      1 B    ReadDataMem [3] $end
$var wire      1 C    ReadDataMem [2] $end
$var wire      1 D    ReadDataMem [1] $end
$var wire      1 E    ReadDataMem [0] $end
$var reg       1 y    CEN  $end
$var reg       1 z    WEN  $end
$var reg       7 {    A [6:0] $end
$var reg      32 |    ReadData2 [31:0] $end
$var reg       1 }    OEN  $end
$var wire     32 ~    ALUresult_mem [31:0] $end
$var wire     32 !!   RD1 [31:0] $end
$var wire     32 "!   RD2 [31:0] $end
$var wire      2 #!   ALUOp [1:0] $end
$var wire      4 $!   ALUctrl [3:0] $end
$var reg      32 %!   ALU_y [31:0] $end
$var reg      32 &!   WD [31:0] $end
$var reg       5 '!   WR [4:0] $end
$var reg      32 (!   nextPC [31:0] $end
$var reg      32 )!   PCplus4 [31:0] $end
$var reg      32 *!   PC [31:0] $end
$var wire      1 +!   RegWrite  $end
$var wire      1 ,!   ALUSrc  $end
$var wire      1 -!   MemWrite  $end
$var wire      1 .!   MemToReg  $end
$var wire      1 /!   Branch  $end
$var wire      1 0!   Jump  $end
$var wire      1 1!   RegDST  $end
$var wire      1 2!   zero  $end

$scope module top_control $end
$var wire      6 3!   instruction [5:0] $end
$var reg       1 4!   RegDST  $end
$var reg       1 5!   Jump  $end
$var reg       1 6!   Branch  $end
$var reg       1 7!   MemToReg  $end
$var reg       1 8!   MemWrite  $end
$var reg       1 9!   ALUSrc  $end
$var reg       1 :!   RegWrite  $end
$var reg       2 ;!   ALUOp [1:0] $end
$upscope $end


$scope module alu_control $end
$var wire      6 <!   instruction [5:0] $end
$var wire      2 #!   ALUOp [1:0] $end
$var reg       4 =!   ALUctrl [3:0] $end
$upscope $end


$scope module ALU_to_mem $end
$var wire      4 $!   ctrl [3:0] $end
$var wire     32 !!   x [31:0] $end
$var wire     32 >!   y [31:0] $end
$var reg       1 ?!   zero  $end
$var reg      32 @!   out [31:0] $end
$upscope $end


$scope module registers $end
$var wire      1 u    Clk  $end
$var wire      1 +!   WEN  $end
$var wire      1 v    reset  $end
$var wire      5 A!   WR [4:0] $end
$var wire      5 B!   RR1 [4:0] $end
$var wire      5 C!   RR2 [4:0] $end
$var wire     32 D!   WD [31:0] $end
$var reg      32 E!   RD1 [31:0] $end
$var reg      32 F!   RD2 [31:0] $end
$var integer  32 G!   i  $end
$var reg      32 H!   demux [31:0] $end
$upscope $end

$upscope $end


$scope module Data_memory $end
$var parameter 32 I!   BITS  $end
$var parameter 32 J!   word_depth  $end
$var parameter 32 K!   addr_width  $end
$var parameter 32 L!   wordx  $end
$var parameter  7 M!   addrx  $end
$var wire      1 &    Q [31] $end
$var wire      1 '    Q [30] $end
$var wire      1 (    Q [29] $end
$var wire      1 )    Q [28] $end
$var wire      1 *    Q [27] $end
$var wire      1 +    Q [26] $end
$var wire      1 ,    Q [25] $end
$var wire      1 -    Q [24] $end
$var wire      1 .    Q [23] $end
$var wire      1 /    Q [22] $end
$var wire      1 0    Q [21] $end
$var wire      1 1    Q [20] $end
$var wire      1 2    Q [19] $end
$var wire      1 3    Q [18] $end
$var wire      1 4    Q [17] $end
$var wire      1 5    Q [16] $end
$var wire      1 6    Q [15] $end
$var wire      1 7    Q [14] $end
$var wire      1 8    Q [13] $end
$var wire      1 9    Q [12] $end
$var wire      1 :    Q [11] $end
$var wire      1 ;    Q [10] $end
$var wire      1 <    Q [9] $end
$var wire      1 =    Q [8] $end
$var wire      1 >    Q [7] $end
$var wire      1 ?    Q [6] $end
$var wire      1 @    Q [5] $end
$var wire      1 A    Q [4] $end
$var wire      1 B    Q [3] $end
$var wire      1 C    Q [2] $end
$var wire      1 D    Q [1] $end
$var wire      1 E    Q [0] $end
$var wire      1 N!   CLK  $end
$var wire      1 F    CEN  $end
$var wire      1 G    WEN  $end
$var wire      1 H    A [6] $end
$var wire      1 I    A [5] $end
$var wire      1 J    A [4] $end
$var wire      1 K    A [3] $end
$var wire      1 L    A [2] $end
$var wire      1 M    A [1] $end
$var wire      1 N    A [0] $end
$var wire      1 O    D [31] $end
$var wire      1 P    D [30] $end
$var wire      1 Q    D [29] $end
$var wire      1 R    D [28] $end
$var wire      1 S    D [27] $end
$var wire      1 T    D [26] $end
$var wire      1 U    D [25] $end
$var wire      1 V    D [24] $end
$var wire      1 W    D [23] $end
$var wire      1 X    D [22] $end
$var wire      1 Y    D [21] $end
$var wire      1 Z    D [20] $end
$var wire      1 [    D [19] $end
$var wire      1 \    D [18] $end
$var wire      1 ]    D [17] $end
$var wire      1 ^    D [16] $end
$var wire      1 _    D [15] $end
$var wire      1 `    D [14] $end
$var wire      1 a    D [13] $end
$var wire      1 b    D [12] $end
$var wire      1 c    D [11] $end
$var wire      1 d    D [10] $end
$var wire      1 e    D [9] $end
$var wire      1 f    D [8] $end
$var wire      1 g    D [7] $end
$var wire      1 h    D [6] $end
$var wire      1 i    D [5] $end
$var wire      1 j    D [4] $end
$var wire      1 k    D [3] $end
$var wire      1 l    D [2] $end
$var wire      1 m    D [1] $end
$var wire      1 n    D [0] $end
$var wire      1 o    OEN  $end
$var reg       1 O!   NOT_CEN  $end
$var reg       1 P!   NOT_WEN  $end
$var reg       1 Q!   NOT_A0  $end
$var reg       1 R!   NOT_A1  $end
$var reg       1 S!   NOT_A2  $end
$var reg       1 T!   NOT_A3  $end
$var reg       1 U!   NOT_A4  $end
$var reg       1 V!   NOT_A5  $end
$var reg       1 W!   NOT_A6  $end
$var reg       7 X!   NOT_A [6:0] $end
$var reg       1 Y!   NOT_D0  $end
$var reg       1 Z!   NOT_D1  $end
$var reg       1 [!   NOT_D2  $end
$var reg       1 \!   NOT_D3  $end
$var reg       1 ]!   NOT_D4  $end
$var reg       1 ^!   NOT_D5  $end
$var reg       1 _!   NOT_D6  $end
$var reg       1 `!   NOT_D7  $end
$var reg       1 a!   NOT_D8  $end
$var reg       1 b!   NOT_D9  $end
$var reg       1 c!   NOT_D10  $end
$var reg       1 d!   NOT_D11  $end
$var reg       1 e!   NOT_D12  $end
$var reg       1 f!   NOT_D13  $end
$var reg       1 g!   NOT_D14  $end
$var reg       1 h!   NOT_D15  $end
$var reg       1 i!   NOT_D16  $end
$var reg       1 j!   NOT_D17  $end
$var reg       1 k!   NOT_D18  $end
$var reg       1 l!   NOT_D19  $end
$var reg       1 m!   NOT_D20  $end
$var reg       1 n!   NOT_D21  $end
$var reg       1 o!   NOT_D22  $end
$var reg       1 p!   NOT_D23  $end
$var reg       1 q!   NOT_D24  $end
$var reg       1 r!   NOT_D25  $end
$var reg       1 s!   NOT_D26  $end
$var reg       1 t!   NOT_D27  $end
$var reg       1 u!   NOT_D28  $end
$var reg       1 v!   NOT_D29  $end
$var reg       1 w!   NOT_D30  $end
$var reg       1 x!   NOT_D31  $end
$var reg      32 y!   NOT_D [31:0] $end
$var reg       1 z!   NOT_CLK_PER  $end
$var reg       1 {!   NOT_CLK_MINH  $end
$var reg       1 |!   NOT_CLK_MINL  $end
$var reg       1 }!   LAST_NOT_CEN  $end
$var reg       1 ~!   LAST_NOT_WEN  $end
$var reg       7 !"   LAST_NOT_A [6:0] $end
$var reg      32 ""   LAST_NOT_D [31:0] $end
$var reg       1 #"   LAST_NOT_CLK_PER  $end
$var reg       1 $"   LAST_NOT_CLK_MINH  $end
$var reg       1 %"   LAST_NOT_CLK_MINL  $end
$var wire      1 &"   _Q [31] $end
$var wire      1 '"   _Q [30] $end
$var wire      1 ("   _Q [29] $end
$var wire      1 )"   _Q [28] $end
$var wire      1 *"   _Q [27] $end
$var wire      1 +"   _Q [26] $end
$var wire      1 ,"   _Q [25] $end
$var wire      1 -"   _Q [24] $end
$var wire      1 ."   _Q [23] $end
$var wire      1 /"   _Q [22] $end
$var wire      1 0"   _Q [21] $end
$var wire      1 1"   _Q [20] $end
$var wire      1 2"   _Q [19] $end
$var wire      1 3"   _Q [18] $end
$var wire      1 4"   _Q [17] $end
$var wire      1 5"   _Q [16] $end
$var wire      1 6"   _Q [15] $end
$var wire      1 7"   _Q [14] $end
$var wire      1 8"   _Q [13] $end
$var wire      1 9"   _Q [12] $end
$var wire      1 :"   _Q [11] $end
$var wire      1 ;"   _Q [10] $end
$var wire      1 <"   _Q [9] $end
$var wire      1 ="   _Q [8] $end
$var wire      1 >"   _Q [7] $end
$var wire      1 ?"   _Q [6] $end
$var wire      1 @"   _Q [5] $end
$var wire      1 A"   _Q [4] $end
$var wire      1 B"   _Q [3] $end
$var wire      1 C"   _Q [2] $end
$var wire      1 D"   _Q [1] $end
$var wire      1 E"   _Q [0] $end
$var wire      1 F"   _OENi  $end
$var wire      7 G"   _A [6:0] $end
$var wire      1 H"   _CLK  $end
$var wire      1 I"   _CEN  $end
$var wire      1 J"   _OEN  $end
$var wire      1 K"   _WEN  $end
$var wire     32 L"   _D [31:0] $end
$var wire      1 M"   re_flag  $end
$var wire      1 N"   re_data_flag  $end
$var reg       1 O"   LATCHED_CEN  $end
$var reg       1 P"   LATCHED_WEN  $end
$var reg       7 Q"   LATCHED_A [6:0] $end
$var reg      32 R"   LATCHED_D [31:0] $end
$var reg       1 S"   CENi  $end
$var reg       1 T"   WENi  $end
$var reg       7 U"   Ai [6:0] $end
$var reg      32 V"   Di [31:0] $end
$var reg      32 W"   Qi [31:0] $end
$var reg      32 X"   LAST_Qi [31:0] $end
$var reg       1 Y"   LAST_CLK  $end

$scope task x_inputs $end
$var integer  32 Z"   n  $end
$upscope $end


$scope task read_mem $end
$var reg       1 ["   r_wb  $end
$var reg       1 \"   xflag  $end
$upscope $end


$scope task write_mem $end
$var reg       7 ]"   a [6:0] $end
$var reg      32 ^"   d [31:0] $end
$upscope $end


$scope task write_mem_x $end
$var reg       7 _"   a [6:0] $end
$upscope $end


$scope task x_mem $end
$var integer  32 `"   n  $end
$upscope $end


$scope function valid_address $end
$var reg       1 a"   valid_address  $end
$var reg       7 b"   a [6:0] $end
$upscope $end

$upscope $end

$upscope $end

$enddefinitions $end
$dumpvars
bx M!
bx L!
b111 K!
b10000000 J!
b100000 I!
0!
1"
bx #
bx $
bx %
x&
x'
x(
x)
x*
x+
x,
x-
x.
x/
x0
x1
x2
x3
x4
x5
x6
x7
x8
x9
x:
x;
x<
x=
x>
x?
x@
xA
xB
xC
xD
xE
xF
xG
xH
xI
xJ
xK
xL
xM
xN
xO
xP
xQ
xR
xS
xT
xU
xV
xW
xX
xY
xZ
x[
x\
x]
x^
x_
x`
xa
xb
xc
xd
xe
xf
xg
xh
xi
xj
xk
xl
xm
xn
xo
b0 p
bx q
bx r
bx s
bx t
0u
1v
bx w
bx x
xy
xz
bx {
bx |
x}
bx ~
bx !!
bx "!
bx #!
bx $!
bx %!
bx &!
bx '!
bx (!
bx )!
bx *!
x+!
x,!
x-!
x.!
x/!
x0!
x1!
x2!
bx 3!
x4!
x5!
x6!
x7!
x8!
x9!
x:!
bx ;!
bx <!
bx =!
bx >!
x?!
bx @!
bx A!
bx B!
bx C!
bx D!
bx E!
bx F!
bx G!
bx H!
1N!
xO!
xP!
xQ!
xR!
xS!
xT!
xU!
xV!
xW!
bx X!
xY!
xZ!
x[!
x\!
x]!
x^!
x_!
x`!
xa!
xb!
xc!
xd!
xe!
xf!
xg!
xh!
xi!
xj!
xk!
xl!
xm!
xn!
xo!
xp!
xq!
xr!
xs!
xt!
xu!
xv!
xw!
xx!
bx y!
xz!
x{!
x|!
x}!
x~!
bx !"
bx ""
x#"
x$"
x%"
x&"
x'"
x("
x)"
x*"
x+"
x,"
x-"
x."
x/"
x0"
x1"
x2"
x3"
x4"
x5"
x6"
x7"
x8"
x9"
x:"
x;"
x<"
x="
x>"
x?"
x@"
xA"
xB"
xC"
xD"
xE"
xF"
bx G"
1H"
xI"
xJ"
xK"
bx L"
xM"
xN"
xO"
xP"
bx Q"
bx R"
xS"
xT"
bx U"
bx V"
bx W"
bx X"
1Y"
bx Z"
x["
x\"
bx ]"
bx ^"
bx _"
bx `"
xa"
bx b"
$end
#200
0"
0v
b1 G!
b10 G!
b11 G!
b100 G!
b101 G!
b110 G!
b111 G!
b1000 G!
b1001 G!
b1010 G!
b1011 G!
b1100 G!
b1101 G!
b1110 G!
b1111 G!
b10000 G!
b10001 G!
b10010 G!
b10011 G!
b10100 G!
b10101 G!
b10110 G!
b10111 G!
b11000 G!
b11001 G!
b11010 G!
b11011 G!
b11100 G!
b11101 G!
b11110 G!
b11111 G!
b100000 G!
b0 G!
b1 G!
b10 G!
b11 G!
b100 G!
b101 G!
b110 G!
b111 G!
b1000 G!
b1001 G!
b1010 G!
b1011 G!
b1100 G!
b1101 G!
b1110 G!
b1111 G!
b10000 G!
b10001 G!
b10010 G!
b10011 G!
b10100 G!
b10101 G!
b10110 G!
b10111 G!
b11000 G!
b11001 G!
b11010 G!
b11011 G!
b11100 G!
b11101 G!
b11110 G!
b11111 G!
b100000 G!
#500
1!
0N!
1u
0H"
b1 G!
b10 G!
b11 G!
b100 G!
b101 G!
b110 G!
b111 G!
b1000 G!
b1001 G!
b1010 G!
b1011 G!
b1100 G!
b1101 G!
b1110 G!
b1111 G!
b10000 G!
b10001 G!
b10010 G!
b10011 G!
b10100 G!
b10101 G!
b10110 G!
b10111 G!
b11000 G!
b11001 G!
b11010 G!
b11011 G!
b11100 G!
b11101 G!
b11110 G!
b11111 G!
b100000 G!
0Y"
#1000
0!
1N!
0u
1H"
0a"
b0 `"
b1 `"
b10 `"
b11 `"
b100 `"
b101 `"
b110 `"
b111 `"
b1000 `"
b1001 `"
b1010 `"
b1011 `"
b1100 `"
b1101 `"
b1110 `"
b1111 `"
b10000 `"
b10001 `"
b10010 `"
b10011 `"
b10100 `"
b10101 `"
b10110 `"
b10111 `"
b11000 `"
b11001 `"
b11010 `"
b11011 `"
b11100 `"
b11101 `"
b11110 `"
b11111 `"
b100000 `"
b100001 `"
b100010 `"
b100011 `"
b100100 `"
b100101 `"
b100110 `"
b100111 `"
b101000 `"
b101001 `"
b101010 `"
b101011 `"
b101100 `"
b101101 `"
b101110 `"
b101111 `"
b110000 `"
b110001 `"
b110010 `"
b110011 `"
b110100 `"
b110101 `"
b110110 `"
b110111 `"
b111000 `"
b111001 `"
b111010 `"
b111011 `"
b111100 `"
b111101 `"
b111110 `"
b111111 `"
b1000000 `"
b1000001 `"
b1000010 `"
b1000011 `"
b1000100 `"
b1000101 `"
b1000110 `"
b1000111 `"
b1001000 `"
b1001001 `"
b1001010 `"
b1001011 `"
b1001100 `"
b1001101 `"
b1001110 `"
b1001111 `"
b1010000 `"
b1010001 `"
b1010010 `"
b1010011 `"
b1010100 `"
b1010101 `"
b1010110 `"
b1010111 `"
b1011000 `"
b1011001 `"
b1011010 `"
b1011011 `"
b1011100 `"
b1011101 `"
b1011110 `"
b1011111 `"
b1100000 `"
b1100001 `"
b1100010 `"
b1100011 `"
b1100100 `"
b1100101 `"
b1100110 `"
b1100111 `"
b1101000 `"
b1101001 `"
b1101010 `"
b1101011 `"
b1101100 `"
b1101101 `"
b1101110 `"
b1101111 `"
b1110000 `"
b1110001 `"
b1110010 `"
b1110011 `"
b1110100 `"
b1110101 `"
b1110110 `"
b1110111 `"
b1111000 `"
b1111001 `"
b1111010 `"
b1111011 `"
b1111100 `"
b1111101 `"
b1111110 `"
b1111111 `"
b10000000 `"
0["
1\"
1Y"
#1500
1!
0N!
1u
0H"
b1 G!
b10 G!
b11 G!
b100 G!
b101 G!
b110 G!
b111 G!
b1000 G!
b1001 G!
b1010 G!
b1011 G!
b1100 G!
b1101 G!
b1110 G!
b1111 G!
b10000 G!
b10001 G!
b10010 G!
b10011 G!
b10100 G!
b10101 G!
b10110 G!
b10111 G!
b11000 G!
b11001 G!
b11010 G!
b11011 G!
b11100 G!
b11101 G!
b11110 G!
b11111 G!
b100000 G!
0Y"
#1700
1"
1v
#2000
0!
1N!
0u
1H"
b0 `"
b1 `"
b10 `"
b11 `"
b100 `"
b101 `"
b110 `"
b111 `"
b1000 `"
b1001 `"
b1010 `"
b1011 `"
b1100 `"
b1101 `"
b1110 `"
b1111 `"
b10000 `"
b10001 `"
b10010 `"
b10011 `"
b10100 `"
b10101 `"
b10110 `"
b10111 `"
b11000 `"
b11001 `"
b11010 `"
b11011 `"
b11100 `"
b11101 `"
b11110 `"
b11111 `"
b100000 `"
b100001 `"
b100010 `"
b100011 `"
b100100 `"
b100101 `"
b100110 `"
b100111 `"
b101000 `"
b101001 `"
b101010 `"
b101011 `"
b101100 `"
b101101 `"
b101110 `"
b101111 `"
b110000 `"
b110001 `"
b110010 `"
b110011 `"
b110100 `"
b110101 `"
b110110 `"
b110111 `"
b111000 `"
b111001 `"
b111010 `"
b111011 `"
b111100 `"
b111101 `"
b111110 `"
b111111 `"
b1000000 `"
b1000001 `"
b1000010 `"
b1000011 `"
b1000100 `"
b1000101 `"
b1000110 `"
b1000111 `"
b1001000 `"
b1001001 `"
b1001010 `"
b1001011 `"
b1001100 `"
b1001101 `"
b1001110 `"
b1001111 `"
b1010000 `"
b1010001 `"
b1010010 `"
b1010011 `"
b1010100 `"
b1010101 `"
b1010110 `"
b1010111 `"
b1011000 `"
b1011001 `"
b1011010 `"
b1011011 `"
b1011100 `"
b1011101 `"
b1011110 `"
b1011111 `"
b1100000 `"
b1100001 `"
b1100010 `"
b1100011 `"
b1100100 `"
b1100101 `"
b1100110 `"
b1100111 `"
b1101000 `"
b1101001 `"
b1101010 `"
b1101011 `"
b1101100 `"
b1101101 `"
b1101110 `"
b1101111 `"
b1110000 `"
b1110001 `"
b1110010 `"
b1110011 `"
b1110100 `"
b1110101 `"
b1110110 `"
b1110111 `"
b1111000 `"
b1111001 `"
b1111010 `"
b1111011 `"
b1111100 `"
b1111101 `"
b1111110 `"
b1111111 `"
b10000000 `"
1Y"
#2500
b1 p
1!
0N!
1u
0H"
b1 G!
b10 G!
b11 G!
b100 G!
b101 G!
b110 G!
b111 G!
b1000 G!
b1001 G!
b1010 G!
b1011 G!
b1100 G!
b1101 G!
b1110 G!
b1111 G!
b10000 G!
b10001 G!
b10010 G!
b10011 G!
b10100 G!
b10101 G!
b10110 G!
b10111 G!
b11000 G!
b11001 G!
b11010 G!
b11011 G!
b11100 G!
b11101 G!
b11110 G!
b11111 G!
b100000 G!
0Y"
b0 G!
b1 G!
b10 G!
b11 G!
b100 G!
b101 G!
b110 G!
b111 G!
b1000 G!
b1001 G!
b1010 G!
b1011 G!
b1100 G!
b1101 G!
b1110 G!
b1111 G!
b10000 G!
b10001 G!
b10010 G!
b10011 G!
b10100 G!
b10101 G!
b10110 G!
b10111 G!
b11000 G!
b11001 G!
b11010 G!
b11011 G!
b11100 G!
b11101 G!
b11110 G!
b11111 G!
b100000 G!
#3000
0!
1N!
0u
1H"
b0 `"
b1 `"
b10 `"
b11 `"
b100 `"
b101 `"
b110 `"
b111 `"
b1000 `"
b1001 `"
b1010 `"
b1011 `"
b1100 `"
b1101 `"
b1110 `"
b1111 `"
b10000 `"
b10001 `"
b10010 `"
b10011 `"
b10100 `"
b10101 `"
b10110 `"
b10111 `"
b11000 `"
b11001 `"
b11010 `"
b11011 `"
b11100 `"
b11101 `"
b11110 `"
b11111 `"
b100000 `"
b100001 `"
b100010 `"
b100011 `"
b100100 `"
b100101 `"
b100110 `"
b100111 `"
b101000 `"
b101001 `"
b101010 `"
b101011 `"
b101100 `"
b101101 `"
b101110 `"
b101111 `"
b110000 `"
b110001 `"
b110010 `"
b110011 `"
b110100 `"
b110101 `"
b110110 `"
b110111 `"
b111000 `"
b111001 `"
b111010 `"
b111011 `"
b111100 `"
b111101 `"
b111110 `"
b111111 `"
b1000000 `"
b1000001 `"
b1000010 `"
b1000011 `"
b1000100 `"
b1000101 `"
b1000110 `"
b1000111 `"
b1001000 `"
b1001001 `"
b1001010 `"
b1001011 `"
b1001100 `"
b1001101 `"
b1001110 `"
b1001111 `"
b1010000 `"
b1010001 `"
b1010010 `"
b1010011 `"
b1010100 `"
b1010101 `"
b1010110 `"
b1010111 `"
b1011000 `"
b1011001 `"
b1011010 `"
b1011011 `"
b1011100 `"
b1011101 `"
b1011110 `"
b1011111 `"
b1100000 `"
b1100001 `"
b1100010 `"
b1100011 `"
b1100100 `"
b1100101 `"
b1100110 `"
b1100111 `"
b1101000 `"
b1101001 `"
b1101010 `"
b1101011 `"
b1101100 `"
b1101101 `"
b1101110 `"
b1101111 `"
b1110000 `"
b1110001 `"
b1110010 `"
b1110011 `"
b1110100 `"
b1110101 `"
b1110110 `"
b1110111 `"
b1111000 `"
b1111001 `"
b1111010 `"
b1111011 `"
b1111100 `"
b1111101 `"
b1111110 `"
b1111111 `"
b10000000 `"
1Y"
#3500
b10 p
1!
0N!
1u
0H"
b1 G!
b10 G!
b11 G!
b100 G!
b101 G!
b110 G!
b111 G!
b1000 G!
b1001 G!
b1010 G!
b1011 G!
b1100 G!
b1101 G!
b1110 G!
b1111 G!
b10000 G!
b10001 G!
b10010 G!
b10011 G!
b10100 G!
b10101 G!
b10110 G!
b10111 G!
b11000 G!
b11001 G!
b11010 G!
b11011 G!
b11100 G!
b11101 G!
b11110 G!
b11111 G!
b100000 G!
0Y"
#4000
0!
1N!
0u
1H"
b0 `"
b1 `"
b10 `"
b11 `"
b100 `"
b101 `"
b110 `"
b111 `"
b1000 `"
b1001 `"
b1010 `"
b1011 `"
b1100 `"
b1101 `"
b1110 `"
b1111 `"
b10000 `"
b10001 `"
b10010 `"
b10011 `"
b10100 `"
b10101 `"
b10110 `"
b10111 `"
b11000 `"
b11001 `"
b11010 `"
b11011 `"
b11100 `"
b11101 `"
b11110 `"
b11111 `"
b100000 `"
b100001 `"
b100010 `"
b100011 `"
b100100 `"
b100101 `"
b100110 `"
b100111 `"
b101000 `"
b101001 `"
b101010 `"
b101011 `"
b101100 `"
b101101 `"
b101110 `"
b101111 `"
b110000 `"
b110001 `"
b110010 `"
b110011 `"
b110100 `"
b110101 `"
b110110 `"
b110111 `"
b111000 `"
b111001 `"
b111010 `"
b111011 `"
b111100 `"
b111101 `"
b111110 `"
b111111 `"
b1000000 `"
b1000001 `"
b1000010 `"
b1000011 `"
b1000100 `"
b1000101 `"
b1000110 `"
b1000111 `"
b1001000 `"
b1001001 `"
b1001010 `"
b1001011 `"
b1001100 `"
b1001101 `"
b1001110 `"
b1001111 `"
b1010000 `"
b1010001 `"
b1010010 `"
b1010011 `"
b1010100 `"
b1010101 `"
b1010110 `"
b1010111 `"
b1011000 `"
b1011001 `"
b1011010 `"
b1011011 `"
b1011100 `"
b1011101 `"
b1011110 `"
b1011111 `"
b1100000 `"
b1100001 `"
b1100010 `"
b1100011 `"
b1100100 `"
b1100101 `"
b1100110 `"
b1100111 `"
b1101000 `"
b1101001 `"
b1101010 `"
b1101011 `"
b1101100 `"
b1101101 `"
b1101110 `"
b1101111 `"
b1110000 `"
b1110001 `"
b1110010 `"
b1110011 `"
b1110100 `"
b1110101 `"
b1110110 `"
b1110111 `"
b1111000 `"
b1111001 `"
b1111010 `"
b1111011 `"
b1111100 `"
b1111101 `"
b1111110 `"
b1111111 `"
b10000000 `"
1Y"
#4500
b11 p
1!
0N!
1u
0H"
b1 G!
b10 G!
b11 G!
b100 G!
b101 G!
b110 G!
b111 G!
b1000 G!
b1001 G!
b1010 G!
b1011 G!
b1100 G!
b1101 G!
b1110 G!
b1111 G!
b10000 G!
b10001 G!
b10010 G!
b10011 G!
b10100 G!
b10101 G!
b10110 G!
b10111 G!
b11000 G!
b11001 G!
b11010 G!
b11011 G!
b11100 G!
b11101 G!
b11110 G!
b11111 G!
b100000 G!
0Y"
